module bitbucket.org/Dima_Gnatovskiy/microservices_golang/vessel-service

go 1.12

require (
	github.com/go-stack/stack v1.8.0 // indirect
	github.com/golang/protobuf v1.3.2
	github.com/golang/snappy v0.0.1 // indirect
	github.com/micro/go-micro v1.8.1
	github.com/xdg/scram v0.0.0-20180814205039-7eeb5667e42c // indirect
	github.com/xdg/stringprep v1.0.0 // indirect
	go.mongodb.org/mongo-driver v1.0.4
)
